1 10 20
100 200 125
201 210 89
900 1000 174
1 1 1
100 1000 179
999999 999999 259
501 1000 179
6 10 20
502441 502441 333
1 999999 525
590944 721285 509
854763 859690 388
962769 996562 458
126639 127280 331
373186 851601 525
653772 728118 504
72835 912096 525
162995 977515 525
98571 610651 470
54392 526342 470
699383 954235 525
109810 518291 470
873515 938170 476
78725 468712 449
389392 597157 470
580650 601684 434
879988 978123 507
143013 254095 443
169033 904347 525
238611 916146 525
15339 791002 509
825816 826198 344
871985 982159 507
436721 451494 400
283850 533461 470
949294 962199 414
796693 963308 525
567484 800639 509
435898 646208 509
242466 738066 509
401589 717502 509
319829 469256 449
286937 676821 509
152744 667959 509
246697 791060 509
512392 904942 525
312145 366013 441
864412 907084 445
355429 923905 525
697299 936043 525
820654 904609 525
136715 200398 383
734106 872436 525
287556 422809 449
864611 900606 445
23702 444950 449
381545 726813 509
576186 809287 509
320576 983916 525
638655 814578 504
634487 757776 504
343512 498910 449
3460 78407 351
159172 724514 509
537467 814019 509
512370 639688 509
531473 899779 525
975468 998148 440
867488 898542 445
949787 993653 458
821454 849707 525
26709 710375 509
831223 836877 388
385685 716467 509
846028 941492 507
233276 336925 407
203796 679035 509
941352 985611 458
813120 879117 525
594552 617618 447
985402 999650 440
708708 829305 468
270211 316710 407
296660 735690 509
975609 984561 427
898207 973917 507
248345 879494 525
514268 879056 525
42015 597242 470
745571 970958 525
952701 993441 458
882763 935904 476
584043 800862 509
392160 934595 525
953047 987429 458
261955 583631 470
122043 960377 525
483734 529910 470
683247 701598 442
558361 861805 525
55250 485022 449
970125 974572 458
895687 899828 370
897366 943391 507
412754 492700 444
854154 984967 507
621784 836466 509
64565 398364 443
75237 230128 386
631399 900208 525
471845 840387 525
995141 998863 440
892424 894863 370
500345 866169 525
287678 756806 509
262937 408911 441
29478 903527 525
160726 291433 443
745863 910411 525
405480 812511 509
215234 827467 509
552481 621214 447
996550 998920 440
71254 256753 443
102180 448321 449
128479 703489 509
110210 968705 525
167912 521880 470
630905 902038 525
92510 769952 509
755370 771473 468
289919 705349 509
102713 228622 386
738420 972028 525
537144 933017 525
35602 399968 443
403534 619322 470
103601 319625 443
719333 946186 525
14485 556591 470
391711 689246 509
909740 949801 507
780788 872080 525
18759 145066 375
774316 918802 525
872888 883838 432
466713 799208 509
828737 852634 525
641859 977295 525
932205 974762 507
711058 955908 525
445586 655585 509
70094 946015 525
543085 760621 509
752448 985281 525
639347 759992 504
214738 242270 443
674488 675456 367
655148 704827 504
435627 978835 525
804513 848328 525
473355 823097 509
499731 688710 509
354856 567170 470
869250 921298 476
834797 890412 525
283276 604048 470
723308 951229 525
372182 619446 470
685409 917507 525
338168 969479 525
297198 957128 525
902253 965835 507
576839 928355 525
664931 929695 525
986865 997693 396
349389 956823 525
769079 948062 525
276518 827211 509
504914 763112 509
439404 468659 444
754484 865793 525
162708 582579 470
104458 571417 470
772594 990148 525
173724 651916 509
143033 425251 449
692075 855955 525
956811 998165 458
602686 617711 447
309788 571077 470
605391 907215 525
78182 789684 509
22501 761416 509
12609 973643 525
528875 766841 509
895534 997252 507
203101 616278 470
303764 525688 470
593130 894377 525
640038 982212 525
215529 663428 509
751980 941932 525
828355 886713 525
690722 934951 525
844738 983930 507
49003 980969 525
688096 834935 504
853008 884140 432
510291 595457 470
500 2500 209
2500 500 209
